0.000000,-0.842186
0.021014,0.567279
0.042028,2.352722
0.063042,3.807967
0.084056,5.661696
0.105070,7.449849
0.126084,7.829444
0.147098,9.368780
0.168112,10.504882
0.189126,11.814132
0.210140,11.751058
0.231154,13.898358
0.252168,13.496618
0.273182,14.584260
0.294196,15.958370
0.315210,15.865761
0.336224,16.942259
0.357238,17.205608
0.378252,18.973629
0.399266,18.402934
0.420280,19.200771
0.441294,20.608326
0.462308,19.394099
0.483322,19.420364
0.504336,19.496393
0.525350,18.982263
0.546364,20.546030
0.567378,20.282890
0.588392,20.198127
0.609406,18.276673
0.630420,18.434373
0.651434,17.635092
0.672448,16.487127
0.693462,17.035633
0.714476,16.372792
0.735490,13.819605
0.756504,13.146212
0.777518,12.382334
0.798532,12.599229
0.819546,11.405552
0.840560,10.381581
0.861574,9.310474
0.882588,6.286706
0.903602,5.707684
0.924616,4.720492
0.945630,3.871418
0.966644,2.845937
0.987658,1.529123
1.008672,0.137552
1.029686,-2.591047
1.050700,-2.218667
1.071714,-4.755309
1.092728,-6.136401
1.113742,-6.377977
1.134756,-7.808704
1.155770,-9.955137
1.176784,-11.317240
1.197798,-12.559469
1.218812,-13.275108
1.239826,-14.398101
1.260840,-14.441115
1.281854,-15.853224
1.302868,-17.232354
1.323882,-16.563916
1.344896,-18.150369
1.365910,-17.822012
1.386924,-18.605271
1.407938,-19.359728
1.428952,-18.691612
1.449966,-18.761829
1.470980,-20.639423
1.491994,-19.654009
1.513008,-19.046257
1.534022,-20.881534
1.555036,-18.851108
1.576050,-18.806148
1.597064,-19.026170
1.618078,-17.652717
1.639092,-17.246541
1.660106,-17.565731
1.681120,-16.057815
1.702134,-16.651187
1.723148,-15.108682
1.744162,-14.588561
1.765176,-14.316910
1.786190,-11.710067
1.807204,-10.899174
1.828218,-11.029271
1.849232,-8.124046
1.870246,-8.707061
1.891260,-7.578561
1.912274,-4.759150
1.933288,-4.000096
1.954302,-1.946641
1.975316,-1.874858
1.996330,-0.709007
2.017344,1.582617
2.038358,2.099797
2.059372,4.651212
2.080386,4.693697
2.101400,5.697504
2.122414,7.705624
2.143428,8.677259
2.164442,10.193760
2.185456,10.462353
2.206470,12.340848
2.227484,12.402866
2.248498,14.324251
2.269512,15.098740
2.290526,15.007790
2.311540,17.454846
2.332554,16.854586
2.353568,17.649098
2.374582,18.990230
2.395596,19.437196
2.416610,19.262643
2.437624,19.704033
2.458638,19.916657
2.479652,20.001102
2.500666,20.946048
2.521680,20.101777
2.542694,19.435781
2.563708,19.052999
2.584722,19.786495
2.605736,19.578737
2.626750,17.441828
2.647764,17.879344
2.668778,16.888228
2.689792,17.069343
2.710806,16.652007
2.731820,14.304454
2.752834,13.198594
2.773848,12.299807
2.794862,12.038846
2.815876,11.000440
2.836890,10.282814
2.857904,9.433586
2.878918,7.823317
2.899932,5.344689
2.920946,5.872491
2.941960,4.557877
2.962974,2.472645
2.983988,0.360469
3.005002,-0.227608
3.026016,-1.228150
3.047030,-2.791650
3.068044,-4.014486
3.089058,-6.432567
3.110072,-6.535569
3.131086,-7.156698
3.152100,-9.816613
3.173114,-10.666448
3.194128,-10.884570
3.215142,-12.151090
3.236156,-12.720604
3.257170,-14.046072
3.278184,-16.303863
3.299198,-16.445460
3.320212,-16.889664
3.341226,-17.759182
3.362240,-17.917386
3.383254,-19.065601
3.404268,-18.466398
3.425282,-20.262665
3.446296,-20.546729
3.467310,-20.011905
3.488324,-20.039277
3.509338,-19.261940
3.530352,-19.950570
3.551366,-19.444199
3.572380,-18.919925
3.593394,-19.653771
3.614408,-17.863003
3.635422,-19.009168
3.656436,-16.712107
3.677450,-16.461711
3.698464,-16.383889
3.719478,-14.497260
3.740492,-14.981880
3.761506,-12.976790
3.782520,-13.070758
3.803534,-10.981992
3.824548,-9.605897
3.845562,-9.808764
3.866576,-9.115396
3.887590,-7.250536
3.908604,-5.621981
3.929618,-4.323111
3.950632,-2.867150
3.971646,-2.395117
3.992660,-0.714404
4.013674,1.339272
4.034688,1.907995
4.055702,4.472089
4.076716,5.611334
4.097730,6.401028
4.118744,7.328691
4.139758,7.600276
4.160772,10.408918
4.181786,11.178830
4.202800,11.222364
4.223814,12.917773
4.244828,14.910167
4.265842,13.996105
4.286856,15.284082
4.307870,15.722010
4.328884,16.239059
4.349898,18.356141
4.370912,18.937147
4.391926,18.280032
4.412940,18.502589
4.433954,20.407151
4.454968,20.463946
4.475982,20.748895
4.496996,20.893057
4.518010,20.857347
4.539023,20.601271
4.560037,19.242137
4.581051,18.995431
4.602065,19.195147
4.623079,17.686073
4.644093,17.477727
4.665107,17.620080
4.686121,17.273377
4.707135,15.227275
4.728149,15.010767
4.749163,14.357410
4.770177,14.134212
4.791191,13.065856
4.812205,11.984573
4.833219,10.252498
4.854233,8.279645
4.875247,7.741130
4.896261,5.407038
4.917275,5.808363
4.938289,4.776509
4.959303,2.801332
4.980317,1.376844
5.001331,0.489304
5.022345,-2.112950
5.043359,-2.845987
5.064373,-3.051772
5.085387,-5.036975
5.106401,-6.111420
5.127415,-7.080201
5.148429,-8.858324
5.169443,-9.731114
5.190457,-10.755813
5.211471,-12.651748
5.232485,-12.933013
5.253499,-14.375162
5.274513,-14.276341
5.295527,-15.126310
5.316541,-16.487575
5.337555,-18.325041
5.358569,-17.852999
5.379583,-18.768430
5.400597,-18.351305
5.421611,-19.250897
5.442625,-20.003025
5.463639,-20.530093
5.484653,-19.017918
5.505667,-19.477812
5.526681,-20.676784
5.547695,-20.150215
5.568709,-20.242279
5.589723,-18.830884
5.610737,-19.601901
5.631751,-17.664818
5.652765,-18.653802
5.673779,-17.931300
5.694793,-15.517598
5.715807,-14.963357
5.736821,-13.975255
5.757835,-13.007474
5.778849,-13.626729
5.799863,-12.606799
5.820877,-9.724411
5.841891,-10.071198
5.862905,-7.969267
5.883919,-8.010480
5.904933,-5.353261
5.925947,-3.643039
5.946961,-3.325350
5.967975,-2.800150
5.988989,-1.170361
6.010003,0.095516
6.031017,2.932615
6.052031,3.871704
6.073045,4.716556
6.094059,4.932741
6.115073,7.111759
6.136087,8.291391
6.157101,9.462422
6.178115,11.209722
6.199129,11.965650
6.220143,13.474490
6.241157,13.902365
6.262171,15.397067
6.283185,15.945018
